%YAML 1.1
%TAG !u! tag:unity3d.com,2011:
--- !u!74 &7400000
AnimationClip:
  m_ObjectHideFlags: 0
  m_CorrespondingSourceObject: {fileID: 0}
  m_PrefabInternal: {fileID: 0}
  m_Name: bIdle
  serializedVersion: 6
  m_Legacy: 0
  m_Compressed: 0
  m_UseHighQualityCurve: 1
  m_RotationCurves: []
  m_CompressedRotationCurves: []
  m_EulerCurves: []
  m_PositionCurves: []
  m_ScaleCurves: []
  m_FloatCurves: []
  m_PPtrCurves:
  - curve:
    - time: 0
      value: {fileID: 21300000, guid: d80bbc73ef1bd814f979699029001889, type: 3}
    - time: 0.083333336
      value: {fileID: 21300000, guid: d36ca51af825fe44f9f8de70a39dce50, type: 3}
    - time: 0.16666667
      value: {fileID: 21300000, guid: cafcd7e999b02194eb39127981cb8a58, type: 3}
    - time: 0.25
      value: {fileID: 21300000, guid: b43efb9350c149d4394534263e6e43c5, type: 3}
    - time: 0.33333334
      value: {fileID: 21300000, guid: 70ec1bae82fb83b4a9e4c164b88f0ea3, type: 3}
    - time: 0.41666666
      value: {fileID: 21300000, guid: 25f149102b2b11248801697e0e3fbf3f, type: 3}
    - time: 0.5
      value: {fileID: 21300000, guid: 0ba5fbd7a283cbc4191cb5a70bb9f67b, type: 3}
    - time: 0.5833333
      value: {fileID: 21300000, guid: 679d76fc7addd994ea121b32a7e19ab5, type: 3}
    - time: 0.6666667
      value: {fileID: 21300000, guid: d180cbcc4e8b62b49b31c19145498807, type: 3}
    - time: 0.75
      value: {fileID: 21300000, guid: 89d43e7fb0879c4469facf8159caf046, type: 3}
    - time: 0.8333333
      value: {fileID: 21300000, guid: 6431cf6c36dbda843a2d1a03db9e680e, type: 3}
    - time: 0.9166667
      value: {fileID: 21300000, guid: 5008dab130ed945498a5b9d4e1e7dd6e, type: 3}
    - time: 1
      value: {fileID: 21300000, guid: 2dbc4cd01efba134796be718b4487375, type: 3}
    - time: 1.0833334
      value: {fileID: 21300000, guid: 49668d264ce4ff443b1cf8fe6f1359df, type: 3}
    - time: 1.1666666
      value: {fileID: 21300000, guid: 78ea7a26ad3660f478294db5914be0bb, type: 3}
    - time: 1.25
      value: {fileID: 21300000, guid: 1937948efe88e1f4d896d3050d99455b, type: 3}
    - time: 1.3333334
      value: {fileID: 21300000, guid: 96ae54588289ee049a87579a8808372c, type: 3}
    - time: 1.4166666
      value: {fileID: 21300000, guid: a90144b7b0e52d24e8efb9be9baac3b1, type: 3}
    - time: 1.5
      value: {fileID: 21300000, guid: dbb7e0746959f1e47adc9e827ec3c5a3, type: 3}
    - time: 1.5833334
      value: {fileID: 21300000, guid: 01de3a4a7271afa4c9301d5bea2eb294, type: 3}
    - time: 1.6666666
      value: {fileID: 21300000, guid: 37affa88fec9a2740b217e13b2c92d93, type: 3}
    - time: 1.75
      value: {fileID: 21300000, guid: daf52eb99e010484a92e0ed0c5d5dc16, type: 3}
    - time: 1.8333334
      value: {fileID: 21300000, guid: 6e8bc394f6c1a5b42810bacf203910e5, type: 3}
    - time: 1.9166666
      value: {fileID: 21300000, guid: 803db18003662054c84b1077f4dc9760, type: 3}
    - time: 2
      value: {fileID: 21300000, guid: a30ce428d53ed544eaad83a9c1733b1d, type: 3}
    - time: 2.0833333
      value: {fileID: 21300000, guid: f1528fce36d219844a108b2741a671d2, type: 3}
    - time: 2.1666667
      value: {fileID: 21300000, guid: dd1ad79ffb669c341a7f1173c9b4318c, type: 3}
    - time: 2.25
      value: {fileID: 21300000, guid: 6ce77c7187feb1144b0ca37473ed4e7c, type: 3}
    - time: 2.3333333
      value: {fileID: 21300000, guid: c92e0c38acf9e6c40860cf7d8c22d2c0, type: 3}
    - time: 2.4166667
      value: {fileID: 21300000, guid: 295848c7461ab3b438e6791a2d5ab1a3, type: 3}
    - time: 2.5
      value: {fileID: 21300000, guid: d384353a6dcbd2e4ba00a0902761f12c, type: 3}
    - time: 2.5833333
      value: {fileID: 21300000, guid: 7bbcf23c577d03e408985b709e657ef9, type: 3}
    - time: 2.6666667
      value: {fileID: 21300000, guid: 94d88b21b220b234fb4f3d573d03df43, type: 3}
    - time: 2.75
      value: {fileID: 21300000, guid: 2a238a6babeb25f448530ba6da411651, type: 3}
    - time: 2.8333333
      value: {fileID: 21300000, guid: fadcd2556f9bc214182fad9f55c7fa75, type: 3}
    - time: 2.9166667
      value: {fileID: 21300000, guid: 6cb5a33205ef4954798242c029e0c426, type: 3}
    - time: 3
      value: {fileID: 21300000, guid: d8a58d714830ff24a86d681912095ad1, type: 3}
    - time: 3.0833333
      value: {fileID: 21300000, guid: 63e39fca3ef176348877223e3eeaee35, type: 3}
    - time: 3.1666667
      value: {fileID: 21300000, guid: bfbae1b6bd0d6eb4c93be9a0a12033b4, type: 3}
    - time: 3.25
      value: {fileID: 21300000, guid: 070aea4a7ad7b3746ac85fbbbc2ecf0a, type: 3}
    - time: 3.3333333
      value: {fileID: 21300000, guid: dc031b56dda4ddb4c8e44210e358d4b9, type: 3}
    - time: 3.4166667
      value: {fileID: 21300000, guid: d4145eaac8102f54e9c33bc6e317ca30, type: 3}
    - time: 3.5
      value: {fileID: 21300000, guid: c37d183a09530164e84a3293ed99224a, type: 3}
    - time: 3.5833333
      value: {fileID: 21300000, guid: 85fcc51bedba5034d861883d38ea0b24, type: 3}
    - time: 3.6666667
      value: {fileID: 21300000, guid: 6540caee82f56554c9e771ba8e238189, type: 3}
    - time: 3.75
      value: {fileID: 21300000, guid: 31274b22bf6b52444b4f76bd107ae11d, type: 3}
    - time: 3.8333333
      value: {fileID: 21300000, guid: c15b0242a24eb4d4295075b5f5e1ccce, type: 3}
    - time: 3.9166667
      value: {fileID: 21300000, guid: d3ab8803ad315464891bf20052f50069, type: 3}
    - time: 4
      value: {fileID: 21300000, guid: b9162f48250c23a4e92232c6dc93510a, type: 3}
    - time: 4.0833335
      value: {fileID: 21300000, guid: fc4addc997cc7c84da74cbf531d3c09b, type: 3}
    - time: 4.1666665
      value: {fileID: 21300000, guid: d32b569f792625148b679aaae7a91156, type: 3}
    - time: 4.25
      value: {fileID: 21300000, guid: c24be8356459aae45aad60f59594bdcc, type: 3}
    - time: 4.3333335
      value: {fileID: 21300000, guid: 0acc678ce7966b047891103e389cb424, type: 3}
    - time: 4.4166665
      value: {fileID: 21300000, guid: 56ac8bac1368ad94fbd42ad208fb7b30, type: 3}
    - time: 4.5
      value: {fileID: 21300000, guid: 5ce67199f9289be4db5c5246dba5e338, type: 3}
    - time: 4.5833335
      value: {fileID: 21300000, guid: 28c2975a7a6fa1745a332fcb4e1adb25, type: 3}
    - time: 4.6666665
      value: {fileID: 21300000, guid: 16f1c0786f97e194eb812e33002cf56d, type: 3}
    - time: 4.75
      value: {fileID: 21300000, guid: 2cbdf610aa113c542ae4ecdc23878886, type: 3}
    - time: 4.8333335
      value: {fileID: 21300000, guid: de75a4546bd0069479b3d7f1141f0487, type: 3}
    - time: 4.9166665
      value: {fileID: 21300000, guid: ae6da49b8d902344da315c3e8204df43, type: 3}
    - time: 5
      value: {fileID: 21300000, guid: 74e38b55567f1074a9c0941524d803c5, type: 3}
    attribute: m_Sprite
    path: 
    classID: 212
    script: {fileID: 0}
  m_SampleRate: 12
  m_WrapMode: 0
  m_Bounds:
    m_Center: {x: 0, y: 0, z: 0}
    m_Extent: {x: 0, y: 0, z: 0}
  m_ClipBindingConstant:
    genericBindings:
    - serializedVersion: 2
      path: 0
      attribute: 0
      script: {fileID: 0}
      typeID: 212
      customType: 23
      isPPtrCurve: 1
    pptrCurveMapping:
    - {fileID: 21300000, guid: d80bbc73ef1bd814f979699029001889, type: 3}
    - {fileID: 21300000, guid: d36ca51af825fe44f9f8de70a39dce50, type: 3}
    - {fileID: 21300000, guid: cafcd7e999b02194eb39127981cb8a58, type: 3}
    - {fileID: 21300000, guid: b43efb9350c149d4394534263e6e43c5, type: 3}
    - {fileID: 21300000, guid: 70ec1bae82fb83b4a9e4c164b88f0ea3, type: 3}
    - {fileID: 21300000, guid: 25f149102b2b11248801697e0e3fbf3f, type: 3}
    - {fileID: 21300000, guid: 0ba5fbd7a283cbc4191cb5a70bb9f67b, type: 3}
    - {fileID: 21300000, guid: 679d76fc7addd994ea121b32a7e19ab5, type: 3}
    - {fileID: 21300000, guid: d180cbcc4e8b62b49b31c19145498807, type: 3}
    - {fileID: 21300000, guid: 89d43e7fb0879c4469facf8159caf046, type: 3}
    - {fileID: 21300000, guid: 6431cf6c36dbda843a2d1a03db9e680e, type: 3}
    - {fileID: 21300000, guid: 5008dab130ed945498a5b9d4e1e7dd6e, type: 3}
    - {fileID: 21300000, guid: 2dbc4cd01efba134796be718b4487375, type: 3}
    - {fileID: 21300000, guid: 49668d264ce4ff443b1cf8fe6f1359df, type: 3}
    - {fileID: 21300000, guid: 78ea7a26ad3660f478294db5914be0bb, type: 3}
    - {fileID: 21300000, guid: 1937948efe88e1f4d896d3050d99455b, type: 3}
    - {fileID: 21300000, guid: 96ae54588289ee049a87579a8808372c, type: 3}
    - {fileID: 21300000, guid: a90144b7b0e52d24e8efb9be9baac3b1, type: 3}
    - {fileID: 21300000, guid: dbb7e0746959f1e47adc9e827ec3c5a3, type: 3}
    - {fileID: 21300000, guid: 01de3a4a7271afa4c9301d5bea2eb294, type: 3}
    - {fileID: 21300000, guid: 37affa88fec9a2740b217e13b2c92d93, type: 3}
    - {fileID: 21300000, guid: daf52eb99e010484a92e0ed0c5d5dc16, type: 3}
    - {fileID: 21300000, guid: 6e8bc394f6c1a5b42810bacf203910e5, type: 3}
    - {fileID: 21300000, guid: 803db18003662054c84b1077f4dc9760, type: 3}
    - {fileID: 21300000, guid: a30ce428d53ed544eaad83a9c1733b1d, type: 3}
    - {fileID: 21300000, guid: f1528fce36d219844a108b2741a671d2, type: 3}
    - {fileID: 21300000, guid: dd1ad79ffb669c341a7f1173c9b4318c, type: 3}
    - {fileID: 21300000, guid: 6ce77c7187feb1144b0ca37473ed4e7c, type: 3}
    - {fileID: 21300000, guid: c92e0c38acf9e6c40860cf7d8c22d2c0, type: 3}
    - {fileID: 21300000, guid: 295848c7461ab3b438e6791a2d5ab1a3, type: 3}
    - {fileID: 21300000, guid: d384353a6dcbd2e4ba00a0902761f12c, type: 3}
    - {fileID: 21300000, guid: 7bbcf23c577d03e408985b709e657ef9, type: 3}
    - {fileID: 21300000, guid: 94d88b21b220b234fb4f3d573d03df43, type: 3}
    - {fileID: 21300000, guid: 2a238a6babeb25f448530ba6da411651, type: 3}
    - {fileID: 21300000, guid: fadcd2556f9bc214182fad9f55c7fa75, type: 3}
    - {fileID: 21300000, guid: 6cb5a33205ef4954798242c029e0c426, type: 3}
    - {fileID: 21300000, guid: d8a58d714830ff24a86d681912095ad1, type: 3}
    - {fileID: 21300000, guid: 63e39fca3ef176348877223e3eeaee35, type: 3}
    - {fileID: 21300000, guid: bfbae1b6bd0d6eb4c93be9a0a12033b4, type: 3}
    - {fileID: 21300000, guid: 070aea4a7ad7b3746ac85fbbbc2ecf0a, type: 3}
    - {fileID: 21300000, guid: dc031b56dda4ddb4c8e44210e358d4b9, type: 3}
    - {fileID: 21300000, guid: d4145eaac8102f54e9c33bc6e317ca30, type: 3}
    - {fileID: 21300000, guid: c37d183a09530164e84a3293ed99224a, type: 3}
    - {fileID: 21300000, guid: 85fcc51bedba5034d861883d38ea0b24, type: 3}
    - {fileID: 21300000, guid: 6540caee82f56554c9e771ba8e238189, type: 3}
    - {fileID: 21300000, guid: 31274b22bf6b52444b4f76bd107ae11d, type: 3}
    - {fileID: 21300000, guid: c15b0242a24eb4d4295075b5f5e1ccce, type: 3}
    - {fileID: 21300000, guid: d3ab8803ad315464891bf20052f50069, type: 3}
    - {fileID: 21300000, guid: b9162f48250c23a4e92232c6dc93510a, type: 3}
    - {fileID: 21300000, guid: fc4addc997cc7c84da74cbf531d3c09b, type: 3}
    - {fileID: 21300000, guid: d32b569f792625148b679aaae7a91156, type: 3}
    - {fileID: 21300000, guid: c24be8356459aae45aad60f59594bdcc, type: 3}
    - {fileID: 21300000, guid: 0acc678ce7966b047891103e389cb424, type: 3}
    - {fileID: 21300000, guid: 56ac8bac1368ad94fbd42ad208fb7b30, type: 3}
    - {fileID: 21300000, guid: 5ce67199f9289be4db5c5246dba5e338, type: 3}
    - {fileID: 21300000, guid: 28c2975a7a6fa1745a332fcb4e1adb25, type: 3}
    - {fileID: 21300000, guid: 16f1c0786f97e194eb812e33002cf56d, type: 3}
    - {fileID: 21300000, guid: 2cbdf610aa113c542ae4ecdc23878886, type: 3}
    - {fileID: 21300000, guid: de75a4546bd0069479b3d7f1141f0487, type: 3}
    - {fileID: 21300000, guid: ae6da49b8d902344da315c3e8204df43, type: 3}
    - {fileID: 21300000, guid: 74e38b55567f1074a9c0941524d803c5, type: 3}
  m_AnimationClipSettings:
    serializedVersion: 2
    m_AdditiveReferencePoseClip: {fileID: 0}
    m_AdditiveReferencePoseTime: 0
    m_StartTime: 0
    m_StopTime: 5.0833335
    m_OrientationOffsetY: 0
    m_Level: 0
    m_CycleOffset: 0
    m_HasAdditiveReferencePose: 0
    m_LoopTime: 1
    m_LoopBlend: 0
    m_LoopBlendOrientation: 0
    m_LoopBlendPositionY: 0
    m_LoopBlendPositionXZ: 0
    m_KeepOriginalOrientation: 0
    m_KeepOriginalPositionY: 1
    m_KeepOriginalPositionXZ: 0
    m_HeightFromFeet: 0
    m_Mirror: 0
  m_EditorCurves: []
  m_EulerEditorCurves: []
  m_HasGenericRootTransform: 0
  m_HasMotionFloatCurves: 0
  m_GenerateMotionCurves: 0
  m_Events: []
