%YAML 1.1
%TAG !u! tag:unity3d.com,2011:
--- !u!74 &7400000
AnimationClip:
  m_ObjectHideFlags: 0
  m_CorrespondingSourceObject: {fileID: 0}
  m_PrefabInternal: {fileID: 0}
  m_Name: fCast
  serializedVersion: 6
  m_Legacy: 0
  m_Compressed: 0
  m_UseHighQualityCurve: 1
  m_RotationCurves: []
  m_CompressedRotationCurves: []
  m_EulerCurves: []
  m_PositionCurves: []
  m_ScaleCurves: []
  m_FloatCurves: []
  m_PPtrCurves:
  - curve:
    - time: 0
      value: {fileID: 21300000, guid: 843fcabab98d3be47992a3c8a6ce27bb, type: 3}
    - time: 0.083333336
      value: {fileID: 21300000, guid: 8cb01fa556fa4f14cb3192bf694fbe3f, type: 3}
    - time: 0.16666667
      value: {fileID: 21300000, guid: 1d24464d87e699e4e9d5a8efbc1b99f5, type: 3}
    - time: 0.25
      value: {fileID: 21300000, guid: 896a584e6a64e4344838672c65a58d4b, type: 3}
    - time: 0.33333334
      value: {fileID: 21300000, guid: 61f99e11e2de8c243aeb67f8a8907635, type: 3}
    - time: 0.41666666
      value: {fileID: 21300000, guid: 48cb497bbc031974fa7f88b8989ddf0f, type: 3}
    - time: 0.5
      value: {fileID: 21300000, guid: 8f2ea976be5c1494695483e1389ae22b, type: 3}
    - time: 0.5833333
      value: {fileID: 21300000, guid: ce7757cdea5e8884fb11f2ea54df6ef3, type: 3}
    - time: 0.6666667
      value: {fileID: 21300000, guid: f0875af2c9f1ef9429a5072e41572c3c, type: 3}
    - time: 0.75
      value: {fileID: 21300000, guid: 209034084ffa28b4d88a634d75c23fc9, type: 3}
    - time: 0.8333333
      value: {fileID: 21300000, guid: 823f6fbe01beef74aaf4c4df53a52792, type: 3}
    - time: 0.9166667
      value: {fileID: 21300000, guid: 7c640a4bc946f4546a183eb5e6872eb9, type: 3}
    - time: 1
      value: {fileID: 21300000, guid: e5e2cc5cfc9881a4e897bcd8334ee127, type: 3}
    - time: 1.0833334
      value: {fileID: 21300000, guid: 0bb01bf08a3966a42a82aaa68f2ba6e0, type: 3}
    - time: 1.1666666
      value: {fileID: 21300000, guid: fca90432feb8c3e4fb8eb25557b85366, type: 3}
    - time: 1.25
      value: {fileID: 21300000, guid: 40b69a4983f15b5428e09d518f35ac1b, type: 3}
    - time: 1.3333334
      value: {fileID: 21300000, guid: 46b081d04be9aa24cba5a8bae44a92ec, type: 3}
    - time: 1.4166666
      value: {fileID: 21300000, guid: 565d0d98ab307d344aafd291f4229c74, type: 3}
    - time: 1.5
      value: {fileID: 21300000, guid: 1701b757e10b52c49b6a3eb81eef5dfe, type: 3}
    - time: 1.5833334
      value: {fileID: 21300000, guid: a8272ea0ff811cb4da2415a4a1fc0363, type: 3}
    - time: 1.6666666
      value: {fileID: 21300000, guid: 4323b79e1c4622d4591c1cec869ecc8a, type: 3}
    - time: 1.75
      value: {fileID: 21300000, guid: ac298a09157f94f44b69652cbf89264f, type: 3}
    - time: 1.8333334
      value: {fileID: 21300000, guid: 3fbb27043a9c70e4f9208ef71d01b7b2, type: 3}
    - time: 1.9166666
      value: {fileID: 21300000, guid: 616ab3ee38c91054a8d5aa49efe2a22b, type: 3}
    - time: 2
      value: {fileID: 21300000, guid: 2249f8c5e4e47744586d179df7a05399, type: 3}
    - time: 2.0833333
      value: {fileID: 21300000, guid: afad25a4736be2a4e935802826487eb7, type: 3}
    - time: 2.1666667
      value: {fileID: 21300000, guid: 889be42321b1c3442b026799df83f76b, type: 3}
    - time: 2.25
      value: {fileID: 21300000, guid: a9815e0d2e75ad04186291e18ff9d7eb, type: 3}
    - time: 2.3333333
      value: {fileID: 21300000, guid: 9e906209766f65b4eaa9e67a9d911ae5, type: 3}
    - time: 2.4166667
      value: {fileID: 21300000, guid: 90880db061227cd44809ec1705145040, type: 3}
    - time: 2.5
      value: {fileID: 21300000, guid: c0cfe63f3b4042a4cad089809d51e47c, type: 3}
    - time: 2.5833333
      value: {fileID: 21300000, guid: 44384fe4718b877419bf4b89e7ead4d3, type: 3}
    - time: 2.6666667
      value: {fileID: 21300000, guid: 1e2a7f47fce2af940b6ac3ce2f46c287, type: 3}
    - time: 2.75
      value: {fileID: 21300000, guid: 36fb474123974204e886b8bc6295581f, type: 3}
    - time: 2.8333333
      value: {fileID: 21300000, guid: 561a7cc0fce94654cafc7bd821d61ef5, type: 3}
    - time: 2.9166667
      value: {fileID: 21300000, guid: 6982b23f93ef53646a697b9c5747b29a, type: 3}
    - time: 3
      value: {fileID: 21300000, guid: a0885d453309e6745b7dbd247334ffef, type: 3}
    - time: 3.0833333
      value: {fileID: 21300000, guid: 83409529c27225c43801cc1b8d93cb70, type: 3}
    - time: 3.1666667
      value: {fileID: 21300000, guid: 6fbf71dfd35c19d48a7cabec558d2d53, type: 3}
    - time: 3.25
      value: {fileID: 21300000, guid: e603a598c33a07a43a46ec71bd98f43b, type: 3}
    - time: 3.3333333
      value: {fileID: 21300000, guid: f1214b5522020cf469b927f0a95c4167, type: 3}
    - time: 3.4166667
      value: {fileID: 21300000, guid: f722a537a3153c44fb4a47cbdaa5de76, type: 3}
    - time: 3.5
      value: {fileID: 21300000, guid: cdd324f1b8cfa8947a08134aad8d3127, type: 3}
    - time: 3.5833333
      value: {fileID: 21300000, guid: b5ca698ed6283d74bb8861225ddf7f23, type: 3}
    - time: 3.6666667
      value: {fileID: 21300000, guid: 414fc90033f53f84798f1737a36f46e9, type: 3}
    - time: 3.75
      value: {fileID: 21300000, guid: 2f3f6945e4f6ab5489748502b5d0d86b, type: 3}
    - time: 3.8333333
      value: {fileID: 21300000, guid: ddd5e38888f46e7499298a885db00297, type: 3}
    - time: 3.9166667
      value: {fileID: 21300000, guid: 96891aea29ecda4418091d2e0476fd12, type: 3}
    - time: 4
      value: {fileID: 21300000, guid: bb560c686e70e424c9dc18e99995337e, type: 3}
    - time: 4.0833335
      value: {fileID: 21300000, guid: 24e408b44290b8849980d4efaceffa1e, type: 3}
    - time: 4.1666665
      value: {fileID: 21300000, guid: 22e6e0bb8ed47d046bae1132eab64b8d, type: 3}
    - time: 4.25
      value: {fileID: 21300000, guid: 0f58c4d591fb74543a4debfa72a444eb, type: 3}
    - time: 4.3333335
      value: {fileID: 21300000, guid: f6ae77b7f3cac8b42af5aad05280aae7, type: 3}
    - time: 4.4166665
      value: {fileID: 21300000, guid: 4ed2a264d92f0e9478bc0e731fff113c, type: 3}
    - time: 4.5
      value: {fileID: 21300000, guid: 94cc4ba1557a31a4f9bc68fbab96aa32, type: 3}
    - time: 4.5833335
      value: {fileID: 21300000, guid: 4845c3c3dde4f4b40864b62d0eaeac99, type: 3}
    - time: 4.6666665
      value: {fileID: 21300000, guid: 927d867927b3f5045860121fd11ab523, type: 3}
    - time: 4.75
      value: {fileID: 21300000, guid: ee79131b177b17641a43982d050f016d, type: 3}
    - time: 4.8333335
      value: {fileID: 21300000, guid: 5f52af8b05392f046b38246985513351, type: 3}
    - time: 4.9166665
      value: {fileID: 21300000, guid: 0c694528ac1995048935fb6c23996ab6, type: 3}
    - time: 5
      value: {fileID: 21300000, guid: d8f2c36e096e7c648a8ce69818e286c3, type: 3}
    attribute: m_Sprite
    path: 
    classID: 212
    script: {fileID: 0}
  m_SampleRate: 12
  m_WrapMode: 0
  m_Bounds:
    m_Center: {x: 0, y: 0, z: 0}
    m_Extent: {x: 0, y: 0, z: 0}
  m_ClipBindingConstant:
    genericBindings:
    - serializedVersion: 2
      path: 0
      attribute: 0
      script: {fileID: 0}
      typeID: 212
      customType: 23
      isPPtrCurve: 1
    pptrCurveMapping:
    - {fileID: 21300000, guid: 843fcabab98d3be47992a3c8a6ce27bb, type: 3}
    - {fileID: 21300000, guid: 8cb01fa556fa4f14cb3192bf694fbe3f, type: 3}
    - {fileID: 21300000, guid: 1d24464d87e699e4e9d5a8efbc1b99f5, type: 3}
    - {fileID: 21300000, guid: 896a584e6a64e4344838672c65a58d4b, type: 3}
    - {fileID: 21300000, guid: 61f99e11e2de8c243aeb67f8a8907635, type: 3}
    - {fileID: 21300000, guid: 48cb497bbc031974fa7f88b8989ddf0f, type: 3}
    - {fileID: 21300000, guid: 8f2ea976be5c1494695483e1389ae22b, type: 3}
    - {fileID: 21300000, guid: ce7757cdea5e8884fb11f2ea54df6ef3, type: 3}
    - {fileID: 21300000, guid: f0875af2c9f1ef9429a5072e41572c3c, type: 3}
    - {fileID: 21300000, guid: 209034084ffa28b4d88a634d75c23fc9, type: 3}
    - {fileID: 21300000, guid: 823f6fbe01beef74aaf4c4df53a52792, type: 3}
    - {fileID: 21300000, guid: 7c640a4bc946f4546a183eb5e6872eb9, type: 3}
    - {fileID: 21300000, guid: e5e2cc5cfc9881a4e897bcd8334ee127, type: 3}
    - {fileID: 21300000, guid: 0bb01bf08a3966a42a82aaa68f2ba6e0, type: 3}
    - {fileID: 21300000, guid: fca90432feb8c3e4fb8eb25557b85366, type: 3}
    - {fileID: 21300000, guid: 40b69a4983f15b5428e09d518f35ac1b, type: 3}
    - {fileID: 21300000, guid: 46b081d04be9aa24cba5a8bae44a92ec, type: 3}
    - {fileID: 21300000, guid: 565d0d98ab307d344aafd291f4229c74, type: 3}
    - {fileID: 21300000, guid: 1701b757e10b52c49b6a3eb81eef5dfe, type: 3}
    - {fileID: 21300000, guid: a8272ea0ff811cb4da2415a4a1fc0363, type: 3}
    - {fileID: 21300000, guid: 4323b79e1c4622d4591c1cec869ecc8a, type: 3}
    - {fileID: 21300000, guid: ac298a09157f94f44b69652cbf89264f, type: 3}
    - {fileID: 21300000, guid: 3fbb27043a9c70e4f9208ef71d01b7b2, type: 3}
    - {fileID: 21300000, guid: 616ab3ee38c91054a8d5aa49efe2a22b, type: 3}
    - {fileID: 21300000, guid: 2249f8c5e4e47744586d179df7a05399, type: 3}
    - {fileID: 21300000, guid: afad25a4736be2a4e935802826487eb7, type: 3}
    - {fileID: 21300000, guid: 889be42321b1c3442b026799df83f76b, type: 3}
    - {fileID: 21300000, guid: a9815e0d2e75ad04186291e18ff9d7eb, type: 3}
    - {fileID: 21300000, guid: 9e906209766f65b4eaa9e67a9d911ae5, type: 3}
    - {fileID: 21300000, guid: 90880db061227cd44809ec1705145040, type: 3}
    - {fileID: 21300000, guid: c0cfe63f3b4042a4cad089809d51e47c, type: 3}
    - {fileID: 21300000, guid: 44384fe4718b877419bf4b89e7ead4d3, type: 3}
    - {fileID: 21300000, guid: 1e2a7f47fce2af940b6ac3ce2f46c287, type: 3}
    - {fileID: 21300000, guid: 36fb474123974204e886b8bc6295581f, type: 3}
    - {fileID: 21300000, guid: 561a7cc0fce94654cafc7bd821d61ef5, type: 3}
    - {fileID: 21300000, guid: 6982b23f93ef53646a697b9c5747b29a, type: 3}
    - {fileID: 21300000, guid: a0885d453309e6745b7dbd247334ffef, type: 3}
    - {fileID: 21300000, guid: 83409529c27225c43801cc1b8d93cb70, type: 3}
    - {fileID: 21300000, guid: 6fbf71dfd35c19d48a7cabec558d2d53, type: 3}
    - {fileID: 21300000, guid: e603a598c33a07a43a46ec71bd98f43b, type: 3}
    - {fileID: 21300000, guid: f1214b5522020cf469b927f0a95c4167, type: 3}
    - {fileID: 21300000, guid: f722a537a3153c44fb4a47cbdaa5de76, type: 3}
    - {fileID: 21300000, guid: cdd324f1b8cfa8947a08134aad8d3127, type: 3}
    - {fileID: 21300000, guid: b5ca698ed6283d74bb8861225ddf7f23, type: 3}
    - {fileID: 21300000, guid: 414fc90033f53f84798f1737a36f46e9, type: 3}
    - {fileID: 21300000, guid: 2f3f6945e4f6ab5489748502b5d0d86b, type: 3}
    - {fileID: 21300000, guid: ddd5e38888f46e7499298a885db00297, type: 3}
    - {fileID: 21300000, guid: 96891aea29ecda4418091d2e0476fd12, type: 3}
    - {fileID: 21300000, guid: bb560c686e70e424c9dc18e99995337e, type: 3}
    - {fileID: 21300000, guid: 24e408b44290b8849980d4efaceffa1e, type: 3}
    - {fileID: 21300000, guid: 22e6e0bb8ed47d046bae1132eab64b8d, type: 3}
    - {fileID: 21300000, guid: 0f58c4d591fb74543a4debfa72a444eb, type: 3}
    - {fileID: 21300000, guid: f6ae77b7f3cac8b42af5aad05280aae7, type: 3}
    - {fileID: 21300000, guid: 4ed2a264d92f0e9478bc0e731fff113c, type: 3}
    - {fileID: 21300000, guid: 94cc4ba1557a31a4f9bc68fbab96aa32, type: 3}
    - {fileID: 21300000, guid: 4845c3c3dde4f4b40864b62d0eaeac99, type: 3}
    - {fileID: 21300000, guid: 927d867927b3f5045860121fd11ab523, type: 3}
    - {fileID: 21300000, guid: ee79131b177b17641a43982d050f016d, type: 3}
    - {fileID: 21300000, guid: 5f52af8b05392f046b38246985513351, type: 3}
    - {fileID: 21300000, guid: 0c694528ac1995048935fb6c23996ab6, type: 3}
    - {fileID: 21300000, guid: d8f2c36e096e7c648a8ce69818e286c3, type: 3}
  m_AnimationClipSettings:
    serializedVersion: 2
    m_AdditiveReferencePoseClip: {fileID: 0}
    m_AdditiveReferencePoseTime: 0
    m_StartTime: 0
    m_StopTime: 5.0833335
    m_OrientationOffsetY: 0
    m_Level: 0
    m_CycleOffset: 0
    m_HasAdditiveReferencePose: 0
    m_LoopTime: 1
    m_LoopBlend: 0
    m_LoopBlendOrientation: 0
    m_LoopBlendPositionY: 0
    m_LoopBlendPositionXZ: 0
    m_KeepOriginalOrientation: 0
    m_KeepOriginalPositionY: 1
    m_KeepOriginalPositionXZ: 0
    m_HeightFromFeet: 0
    m_Mirror: 0
  m_EditorCurves: []
  m_EulerEditorCurves: []
  m_HasGenericRootTransform: 0
  m_HasMotionFloatCurves: 0
  m_GenerateMotionCurves: 0
  m_Events: []
