%YAML 1.1
%TAG !u! tag:unity3d.com,2011:
--- !u!74 &7400000
AnimationClip:
  m_ObjectHideFlags: 0
  m_CorrespondingSourceObject: {fileID: 0}
  m_PrefabInternal: {fileID: 0}
  m_Name: sCast
  serializedVersion: 6
  m_Legacy: 0
  m_Compressed: 0
  m_UseHighQualityCurve: 1
  m_RotationCurves: []
  m_CompressedRotationCurves: []
  m_EulerCurves: []
  m_PositionCurves: []
  m_ScaleCurves: []
  m_FloatCurves: []
  m_PPtrCurves:
  - curve:
    - time: 0
      value: {fileID: 21300000, guid: a3f7289134254b040b23c5aaef45dd47, type: 3}
    - time: 0.083333336
      value: {fileID: 21300000, guid: eed98fc1ed189474b853fc68f658f80a, type: 3}
    - time: 0.16666667
      value: {fileID: 21300000, guid: d06a9f89f5c944d48b5e597c65304eb9, type: 3}
    - time: 0.25
      value: {fileID: 21300000, guid: 94150c7300c24174195940b9f2205cc2, type: 3}
    - time: 0.33333334
      value: {fileID: 21300000, guid: 33fcffc511d9e584ea406e1bb55fd432, type: 3}
    - time: 0.41666666
      value: {fileID: 21300000, guid: e7d8000f5a2bd9d41af0e31edf13977b, type: 3}
    - time: 0.5
      value: {fileID: 21300000, guid: 60cda0b0176544748a98be3a653c52b4, type: 3}
    - time: 0.5833333
      value: {fileID: 21300000, guid: fc24d69f83080d94ab76757ce5cd995d, type: 3}
    - time: 0.6666667
      value: {fileID: 21300000, guid: a50bb9eab51e0db4883c16368e0b8503, type: 3}
    - time: 0.75
      value: {fileID: 21300000, guid: 9907fa03e27d6b442837c6141fe5ea8c, type: 3}
    - time: 0.8333333
      value: {fileID: 21300000, guid: 7a09a124672e89245bc26c39f737c767, type: 3}
    - time: 0.9166667
      value: {fileID: 21300000, guid: a9e3b200c8b838f4ebcfac0bada14e2e, type: 3}
    - time: 1
      value: {fileID: 21300000, guid: caf7d56b3e4b50f4ca112ac7659b784a, type: 3}
    - time: 1.0833334
      value: {fileID: 21300000, guid: 84bde13b36675c641bb120fa738adf95, type: 3}
    - time: 1.1666666
      value: {fileID: 21300000, guid: 7bf9b846f46d6c9438d6f0cde98d71da, type: 3}
    - time: 1.25
      value: {fileID: 21300000, guid: 16220b336b5f9774cad6580c9152215c, type: 3}
    - time: 1.3333334
      value: {fileID: 21300000, guid: 2152cb49f1759a04093cbf45dd1ee42b, type: 3}
    - time: 1.4166666
      value: {fileID: 21300000, guid: 64666ffe9de75d34a9d04455125838e6, type: 3}
    - time: 1.5
      value: {fileID: 21300000, guid: 9e70f372e3106bf42a215918895f8369, type: 3}
    - time: 1.5833334
      value: {fileID: 21300000, guid: 9a2679735f134ad4884f0b738d515aad, type: 3}
    - time: 1.6666666
      value: {fileID: 21300000, guid: e58490ec36d3d154194c23b5c86abf24, type: 3}
    - time: 1.75
      value: {fileID: 21300000, guid: 395df1a470bde8144aa7f239da2676ef, type: 3}
    - time: 1.8333334
      value: {fileID: 21300000, guid: 2113653398169f746976a5056c07afa6, type: 3}
    - time: 1.9166666
      value: {fileID: 21300000, guid: e09ff60f1a2392646a1cf27c4c4a6bd6, type: 3}
    - time: 2
      value: {fileID: 21300000, guid: 011e21761101fa64fbab9507f49fa00a, type: 3}
    - time: 2.0833333
      value: {fileID: 21300000, guid: 269fb934e9e4cf54e9820f0df49d9d58, type: 3}
    - time: 2.1666667
      value: {fileID: 21300000, guid: 74cad46cf97086946a178f1e1932144d, type: 3}
    - time: 2.25
      value: {fileID: 21300000, guid: 79bb392dbc410b94f9fafa3b4956f787, type: 3}
    - time: 2.3333333
      value: {fileID: 21300000, guid: 151aa55f1831d7d41bf08841a5f770c3, type: 3}
    - time: 2.4166667
      value: {fileID: 21300000, guid: 3daec9d07aa0c3e428c14c1b600e9924, type: 3}
    - time: 2.5
      value: {fileID: 21300000, guid: 1784983fc5df32b498ba3beb5ef45745, type: 3}
    attribute: m_Sprite
    path: 
    classID: 212
    script: {fileID: 0}
  m_SampleRate: 12
  m_WrapMode: 0
  m_Bounds:
    m_Center: {x: 0, y: 0, z: 0}
    m_Extent: {x: 0, y: 0, z: 0}
  m_ClipBindingConstant:
    genericBindings:
    - serializedVersion: 2
      path: 0
      attribute: 0
      script: {fileID: 0}
      typeID: 212
      customType: 23
      isPPtrCurve: 1
    pptrCurveMapping:
    - {fileID: 21300000, guid: a3f7289134254b040b23c5aaef45dd47, type: 3}
    - {fileID: 21300000, guid: eed98fc1ed189474b853fc68f658f80a, type: 3}
    - {fileID: 21300000, guid: d06a9f89f5c944d48b5e597c65304eb9, type: 3}
    - {fileID: 21300000, guid: 94150c7300c24174195940b9f2205cc2, type: 3}
    - {fileID: 21300000, guid: 33fcffc511d9e584ea406e1bb55fd432, type: 3}
    - {fileID: 21300000, guid: e7d8000f5a2bd9d41af0e31edf13977b, type: 3}
    - {fileID: 21300000, guid: 60cda0b0176544748a98be3a653c52b4, type: 3}
    - {fileID: 21300000, guid: fc24d69f83080d94ab76757ce5cd995d, type: 3}
    - {fileID: 21300000, guid: a50bb9eab51e0db4883c16368e0b8503, type: 3}
    - {fileID: 21300000, guid: 9907fa03e27d6b442837c6141fe5ea8c, type: 3}
    - {fileID: 21300000, guid: 7a09a124672e89245bc26c39f737c767, type: 3}
    - {fileID: 21300000, guid: a9e3b200c8b838f4ebcfac0bada14e2e, type: 3}
    - {fileID: 21300000, guid: caf7d56b3e4b50f4ca112ac7659b784a, type: 3}
    - {fileID: 21300000, guid: 84bde13b36675c641bb120fa738adf95, type: 3}
    - {fileID: 21300000, guid: 7bf9b846f46d6c9438d6f0cde98d71da, type: 3}
    - {fileID: 21300000, guid: 16220b336b5f9774cad6580c9152215c, type: 3}
    - {fileID: 21300000, guid: 2152cb49f1759a04093cbf45dd1ee42b, type: 3}
    - {fileID: 21300000, guid: 64666ffe9de75d34a9d04455125838e6, type: 3}
    - {fileID: 21300000, guid: 9e70f372e3106bf42a215918895f8369, type: 3}
    - {fileID: 21300000, guid: 9a2679735f134ad4884f0b738d515aad, type: 3}
    - {fileID: 21300000, guid: e58490ec36d3d154194c23b5c86abf24, type: 3}
    - {fileID: 21300000, guid: 395df1a470bde8144aa7f239da2676ef, type: 3}
    - {fileID: 21300000, guid: 2113653398169f746976a5056c07afa6, type: 3}
    - {fileID: 21300000, guid: e09ff60f1a2392646a1cf27c4c4a6bd6, type: 3}
    - {fileID: 21300000, guid: 011e21761101fa64fbab9507f49fa00a, type: 3}
    - {fileID: 21300000, guid: 269fb934e9e4cf54e9820f0df49d9d58, type: 3}
    - {fileID: 21300000, guid: 74cad46cf97086946a178f1e1932144d, type: 3}
    - {fileID: 21300000, guid: 79bb392dbc410b94f9fafa3b4956f787, type: 3}
    - {fileID: 21300000, guid: 151aa55f1831d7d41bf08841a5f770c3, type: 3}
    - {fileID: 21300000, guid: 3daec9d07aa0c3e428c14c1b600e9924, type: 3}
    - {fileID: 21300000, guid: 1784983fc5df32b498ba3beb5ef45745, type: 3}
  m_AnimationClipSettings:
    serializedVersion: 2
    m_AdditiveReferencePoseClip: {fileID: 0}
    m_AdditiveReferencePoseTime: 0
    m_StartTime: 0
    m_StopTime: 2.5833333
    m_OrientationOffsetY: 0
    m_Level: 0
    m_CycleOffset: 0
    m_HasAdditiveReferencePose: 0
    m_LoopTime: 1
    m_LoopBlend: 0
    m_LoopBlendOrientation: 0
    m_LoopBlendPositionY: 0
    m_LoopBlendPositionXZ: 0
    m_KeepOriginalOrientation: 0
    m_KeepOriginalPositionY: 1
    m_KeepOriginalPositionXZ: 0
    m_HeightFromFeet: 0
    m_Mirror: 0
  m_EditorCurves: []
  m_EulerEditorCurves: []
  m_HasGenericRootTransform: 0
  m_HasMotionFloatCurves: 0
  m_GenerateMotionCurves: 0
  m_Events: []
