%YAML 1.1
%TAG !u! tag:unity3d.com,2011:
--- !u!74 &7400000
AnimationClip:
  m_ObjectHideFlags: 0
  m_CorrespondingSourceObject: {fileID: 0}
  m_PrefabInternal: {fileID: 0}
  m_Name: sWalk
  serializedVersion: 6
  m_Legacy: 0
  m_Compressed: 0
  m_UseHighQualityCurve: 1
  m_RotationCurves: []
  m_CompressedRotationCurves: []
  m_EulerCurves: []
  m_PositionCurves: []
  m_ScaleCurves: []
  m_FloatCurves: []
  m_PPtrCurves:
  - curve:
    - time: 0
      value: {fileID: 21300000, guid: 40ee1fdda4e1d8a4385eb115b26e8a7f, type: 3}
    - time: 0.083333336
      value: {fileID: 21300000, guid: 23e83304bef86264ebe79d89db5b661c, type: 3}
    - time: 0.16666667
      value: {fileID: 21300000, guid: 1f1871bf1519ca646b59b485fdbfa794, type: 3}
    - time: 0.25
      value: {fileID: 21300000, guid: 9904eb70b18510c40bba7a5034008ec2, type: 3}
    - time: 0.33333334
      value: {fileID: 21300000, guid: c91bb8f300cb2a74d877a5c0a2fd520e, type: 3}
    - time: 0.41666666
      value: {fileID: 21300000, guid: c9a4990132cd28840913985fc375e9fc, type: 3}
    - time: 0.5
      value: {fileID: 21300000, guid: df18a5a312ac5ce429dad14f950371e4, type: 3}
    - time: 0.5833333
      value: {fileID: 21300000, guid: b966d9dbe07f80e49a2b10fd26d572b6, type: 3}
    - time: 0.6666667
      value: {fileID: 21300000, guid: 10f230024e70cd74683fbaaff67bb8e0, type: 3}
    - time: 0.75
      value: {fileID: 21300000, guid: 5c711c3abed487840ac143184c165e94, type: 3}
    - time: 0.8333333
      value: {fileID: 21300000, guid: 85eea9eabad297e4aba09ca638ea87a1, type: 3}
    - time: 0.9166667
      value: {fileID: 21300000, guid: b98c70d5c04495c4596a98ee0d531e48, type: 3}
    - time: 1
      value: {fileID: 21300000, guid: 08dd714a98ef2c94d9109fab3c960134, type: 3}
    - time: 1.0833334
      value: {fileID: 21300000, guid: d3b39570b6f1b284c8a3b5617e15ec5f, type: 3}
    - time: 1.1666666
      value: {fileID: 21300000, guid: 4ea60e99f5dcda14fa8ff8df3bb639dd, type: 3}
    - time: 1.25
      value: {fileID: 21300000, guid: 988cf472f26e5594eb6d6ff51e631922, type: 3}
    - time: 1.3333334
      value: {fileID: 21300000, guid: 3bc2efb5bc3252e4eaf6c238e474787d, type: 3}
    - time: 1.4166666
      value: {fileID: 21300000, guid: f7216c53c7a8719458816c5d943f19a5, type: 3}
    - time: 1.5
      value: {fileID: 21300000, guid: cd081c8d1c310384db5950d9cc04fc15, type: 3}
    - time: 1.5833334
      value: {fileID: 21300000, guid: dacc842abb01e0849ba27244dcd75e6b, type: 3}
    - time: 1.6666666
      value: {fileID: 21300000, guid: 40f6607c87285de43a867956639855bc, type: 3}
    - time: 1.75
      value: {fileID: 21300000, guid: 137c16dfbf18f57418e3a3ea1ec33323, type: 3}
    - time: 1.8333334
      value: {fileID: 21300000, guid: e307087018e87db419d908e2a529fb2b, type: 3}
    - time: 1.9166666
      value: {fileID: 21300000, guid: a8f6d3e14d6dad24f9a0f87d9f91895f, type: 3}
    - time: 2
      value: {fileID: 21300000, guid: d51128b60258f2f41b9f09b366d30fb1, type: 3}
    - time: 2.0833333
      value: {fileID: 21300000, guid: 2714b62e55569004ca5dc34784ecc8bd, type: 3}
    - time: 2.1666667
      value: {fileID: 21300000, guid: fb716c4b7821e514c981666668fbd344, type: 3}
    - time: 2.25
      value: {fileID: 21300000, guid: d96e9bfb31d769340aed97b56dfa7ee5, type: 3}
    - time: 2.3333333
      value: {fileID: 21300000, guid: 6ad1fcf636a1d014f8f027e6b1ccac0c, type: 3}
    - time: 2.4166667
      value: {fileID: 21300000, guid: 76d0ea2ddedd66f4b987ee9563f8264d, type: 3}
    - time: 2.5
      value: {fileID: 21300000, guid: f1bab229ae2675845afc81db2aab0985, type: 3}
    attribute: m_Sprite
    path: 
    classID: 212
    script: {fileID: 0}
  m_SampleRate: 12
  m_WrapMode: 0
  m_Bounds:
    m_Center: {x: 0, y: 0, z: 0}
    m_Extent: {x: 0, y: 0, z: 0}
  m_ClipBindingConstant:
    genericBindings:
    - serializedVersion: 2
      path: 0
      attribute: 0
      script: {fileID: 0}
      typeID: 212
      customType: 23
      isPPtrCurve: 1
    pptrCurveMapping:
    - {fileID: 21300000, guid: 40ee1fdda4e1d8a4385eb115b26e8a7f, type: 3}
    - {fileID: 21300000, guid: 23e83304bef86264ebe79d89db5b661c, type: 3}
    - {fileID: 21300000, guid: 1f1871bf1519ca646b59b485fdbfa794, type: 3}
    - {fileID: 21300000, guid: 9904eb70b18510c40bba7a5034008ec2, type: 3}
    - {fileID: 21300000, guid: c91bb8f300cb2a74d877a5c0a2fd520e, type: 3}
    - {fileID: 21300000, guid: c9a4990132cd28840913985fc375e9fc, type: 3}
    - {fileID: 21300000, guid: df18a5a312ac5ce429dad14f950371e4, type: 3}
    - {fileID: 21300000, guid: b966d9dbe07f80e49a2b10fd26d572b6, type: 3}
    - {fileID: 21300000, guid: 10f230024e70cd74683fbaaff67bb8e0, type: 3}
    - {fileID: 21300000, guid: 5c711c3abed487840ac143184c165e94, type: 3}
    - {fileID: 21300000, guid: 85eea9eabad297e4aba09ca638ea87a1, type: 3}
    - {fileID: 21300000, guid: b98c70d5c04495c4596a98ee0d531e48, type: 3}
    - {fileID: 21300000, guid: 08dd714a98ef2c94d9109fab3c960134, type: 3}
    - {fileID: 21300000, guid: d3b39570b6f1b284c8a3b5617e15ec5f, type: 3}
    - {fileID: 21300000, guid: 4ea60e99f5dcda14fa8ff8df3bb639dd, type: 3}
    - {fileID: 21300000, guid: 988cf472f26e5594eb6d6ff51e631922, type: 3}
    - {fileID: 21300000, guid: 3bc2efb5bc3252e4eaf6c238e474787d, type: 3}
    - {fileID: 21300000, guid: f7216c53c7a8719458816c5d943f19a5, type: 3}
    - {fileID: 21300000, guid: cd081c8d1c310384db5950d9cc04fc15, type: 3}
    - {fileID: 21300000, guid: dacc842abb01e0849ba27244dcd75e6b, type: 3}
    - {fileID: 21300000, guid: 40f6607c87285de43a867956639855bc, type: 3}
    - {fileID: 21300000, guid: 137c16dfbf18f57418e3a3ea1ec33323, type: 3}
    - {fileID: 21300000, guid: e307087018e87db419d908e2a529fb2b, type: 3}
    - {fileID: 21300000, guid: a8f6d3e14d6dad24f9a0f87d9f91895f, type: 3}
    - {fileID: 21300000, guid: d51128b60258f2f41b9f09b366d30fb1, type: 3}
    - {fileID: 21300000, guid: 2714b62e55569004ca5dc34784ecc8bd, type: 3}
    - {fileID: 21300000, guid: fb716c4b7821e514c981666668fbd344, type: 3}
    - {fileID: 21300000, guid: d96e9bfb31d769340aed97b56dfa7ee5, type: 3}
    - {fileID: 21300000, guid: 6ad1fcf636a1d014f8f027e6b1ccac0c, type: 3}
    - {fileID: 21300000, guid: 76d0ea2ddedd66f4b987ee9563f8264d, type: 3}
    - {fileID: 21300000, guid: f1bab229ae2675845afc81db2aab0985, type: 3}
  m_AnimationClipSettings:
    serializedVersion: 2
    m_AdditiveReferencePoseClip: {fileID: 0}
    m_AdditiveReferencePoseTime: 0
    m_StartTime: 0
    m_StopTime: 2.5833333
    m_OrientationOffsetY: 0
    m_Level: 0
    m_CycleOffset: 0
    m_HasAdditiveReferencePose: 0
    m_LoopTime: 1
    m_LoopBlend: 0
    m_LoopBlendOrientation: 0
    m_LoopBlendPositionY: 0
    m_LoopBlendPositionXZ: 0
    m_KeepOriginalOrientation: 0
    m_KeepOriginalPositionY: 1
    m_KeepOriginalPositionXZ: 0
    m_HeightFromFeet: 0
    m_Mirror: 0
  m_EditorCurves: []
  m_EulerEditorCurves: []
  m_HasGenericRootTransform: 0
  m_HasMotionFloatCurves: 0
  m_GenerateMotionCurves: 0
  m_Events: []
